…
```r
library("janitor")
```


```r
fisheries <- janitor::clean_names(fisheries)
fisheries
```

```
## # A tibble: 17,692 x 71
##    country common_name    isscaap_group_nu~ isscaap_taxonomic_~ asfis_species_n~
##    <chr>   <chr>                      <dbl> <chr>               <chr>           
##  1 Albania Angelsharks, ~                38 Sharks, rays, chim~ 10903XXXXX      
##  2 Albania Atlantic boni~                36 Tunas, bonitos, bi~ 1750100101      
##  3 Albania Barracudas nei                37 Miscellaneous pela~ 17710001XX      
##  4 Albania Blue and red ~                45 Shrimps, prawns     2280203101      
##  5 Albania Blue whiting(~                32 Cods, hakes, haddo~ 1480403301      
##  6 Albania Bluefish                      37 Miscellaneous pela~ 1702021301      
##  7 Albania Bogue                         33 Miscellaneous coas~ 1703926101      
##  8 Albania Caramote prawn                45 Shrimps, prawns     2280100117      
##  9 Albania Catsharks, nu~                38 Sharks, rays, chim~ 10801003XX      
## 10 Albania Common cuttle~                57 Squids, cuttlefish~ 3210200202      
## # ... with 17,682 more rows, and 66 more variables: asfis_species_name <chr>,
## #   fao_major_fishing_area <dbl>, measure <chr>, x1950 <chr>, x1951 <chr>,
## #   x1952 <chr>, x1953 <chr>, x1954 <chr>, x1955 <chr>, x1956 <chr>,
## #   x1957 <chr>, x1958 <chr>, x1959 <chr>, x1960 <chr>, x1961 <chr>,
## #   x1962 <chr>, x1963 <chr>, x1964 <chr>, x1965 <chr>, x1966 <chr>,
## #   x1967 <chr>, x1968 <chr>, x1969 <chr>, x1970 <chr>, x1971 <chr>,
## #   x1972 <chr>, x1973 <chr>, x1974 <chr>, x1975 <chr>, x1976 <chr>, ...
```
…
```r
library(tidyverse)
```

3. How many countries are represented in the data? Provide a count and list their names.

```r
fisheries_tidy %>% 
  count(country)
```

```
## # A tibble: 203 x 2
##    country                 n
##    <fct>               <int>
##  1 Albania               934
##  2 Algeria              1561
##  3 American Samoa        556
##  4 Angola               2119
##  5 Anguilla              129
##  6 Antigua and Barbuda   356
##  7 Argentina            3403
##  8 Aruba                 172
##  9 Australia            8183
## 10 Bahamas               423
## # ... with 193 more rows
```

4. Refocus the data only to include country, isscaap_taxonomic_group, asfis_species_name, asfis_species_number, year, catch.

```r
fisheries_tidy %>% 
  select(country, isscaap_taxonomic_group, asfis_species_name, asfis_species_number, year, catch)
```

```
## # A tibble: 376,771 x 6
##    country isscaap_taxonomic_group asfis_species_n~ asfis_species_n~  year catch
##    <fct>   <chr>                   <chr>            <fct>            <dbl> <dbl>
##  1 Albania Sharks, rays, chimaeras Squatinidae      10903XXXXX        1995    NA
##  2 Albania Sharks, rays, chimaeras Squatinidae      10903XXXXX        1996    53
##  3 Albania Sharks, rays, chimaeras Squatinidae      10903XXXXX        1997    20
##  4 Albania Sharks, rays, chimaeras Squatinidae      10903XXXXX        1998    31
##  5 Albania Sharks, rays, chimaeras Squatinidae      10903XXXXX        1999    30
##  6 Albania Sharks, rays, chimaeras Squatinidae      10903XXXXX        2000    30
##  7 Albania Sharks, rays, chimaeras Squatinidae      10903XXXXX        2001    16
##  8 Albania Sharks, rays, chimaeras Squatinidae      10903XXXXX        2002    79
##  9 Albania Sharks, rays, chimaeras Squatinidae      10903XXXXX        2003     1
## 10 Albania Sharks, rays, chimaeras Squatinidae      10903XXXXX        2004     4
## # ... with 376,761 more rows
```
…
6. Which country had the largest overall catch in the year 2000?

```r
fisheries_tidy %>% 
  select(country, catch, year) %>% 
  filter(year==2000) %>% 
  arrange(desc(catch))
```

```
## # A tibble: 8,793 x 3
##    country                  catch  year
##    <fct>                    <dbl> <dbl>
##  1 China                     9068  2000
##  2 Peru                      5717  2000
##  3 Russian Federation        5065  2000
##  4 Viet Nam                  4945  2000
##  5 Chile                     4299  2000
##  6 China                     3288  2000
##  7 China                     2782  2000
##  8 United States of America  2438  2000
##  9 China                     1234  2000
## 10 Philippines                999  2000
## # ... with 8,783 more rows
```

7. Which country caught the most sardines (_Sardina pilchardus_) between the years 1990-2000?

```r
fisheries_tidy %>% 
  select(country, asfis_species_name, year, catch) %>% 
  filter(asfis_species_name == "Sardina pilchardus") %>%
  filter(between(year, 1990, 2000)) %>% 
  group_by(country) %>% 
  summarize(total_catch = sum(catch, na.rm=T)) %>% 
  arrange(desc(total_catch))
```

```
## # A tibble: 37 x 2
##    country               total_catch
##    <fct>                       <dbl>
##  1 Morocco                      7470
##  2 Spain                        3507
##  3 Russian Federation           1639
##  4 Ukraine                      1030
##  5 France                        966
##  6 Portugal                      818
##  7 Greece                        528
##  8 Italy                         507
##  9 Serbia and Montenegro         478
## 10 Denmark                       477
## # ... with 27 more rows
```

8. Which five countries caught the most cephalopods between 2008-2012?

```r
fisheries_tidy_focused <- fisheries_tidy%>% 
  filter(str_detect(isscaap_taxonomic_group, "Squids"))
fisheries_tidy_focused
```

```
## # A tibble: 14,532 x 10
##    country common_name       isscaap_group_nu~ isscaap_taxonom~ asfis_species_n~
##    <fct>   <chr>             <fct>             <chr>            <fct>           
##  1 Albania Common cuttlefish 57                Squids, cuttlef~ 3210200202      
##  2 Albania Common cuttlefish 57                Squids, cuttlef~ 3210200202      
##  3 Albania Common cuttlefish 57                Squids, cuttlef~ 3210200202      
##  4 Albania Common cuttlefish 57                Squids, cuttlef~ 3210200202      
##  5 Albania Common cuttlefish 57                Squids, cuttlef~ 3210200202      
##  6 Albania Common cuttlefish 57                Squids, cuttlef~ 3210200202      
##  7 Albania Common cuttlefish 57                Squids, cuttlef~ 3210200202      
##  8 Albania Common cuttlefish 57                Squids, cuttlef~ 3210200202      
##  9 Albania Common cuttlefish 57                Squids, cuttlef~ 3210200202      
## 10 Albania Common cuttlefish 57                Squids, cuttlef~ 3210200202      
## # ... with 14,522 more rows, and 5 more variables: asfis_species_name <chr>,
## #   fao_major_fishing_area <fct>, measure <chr>, year <dbl>, catch <dbl>
```


```r
fisheries_tidy_focused %>% 
  select(country, year, catch) %>%
  filter(between(year, 2008, 2012)) %>% 
  group_by(country) %>% 
  summarize(total_catch = sum(catch, na.rm=T)) %>% 
  arrange(desc(total_catch))
```

```
## # A tibble: 122 x 2
##    country                  total_catch
##    <fct>                          <dbl>
##  1 China                           8349
##  2 Korea, Republic of              3480
##  3 Peru                            3422
##  4 Japan                           3248
##  5 Chile                           2775
##  6 United States of America        2417
##  7 Indonesia                       1622
##  8 Taiwan Province of China        1394
##  9 Spain                           1147
## 10 France                          1138
## # ... with 112 more rows
```

9. Which species had the highest catch total between 2008-2012? (hint: Osteichthyes is not a species)

```r
fisheries_tidy%>% 
  filter(year>=2008 & year<=2012)%>% 
  group_by(asfis_species_name) %>% 
  summarize(catch_total=sum(catch, na.rm=T)) %>% 
  arrange(desc(catch_total))
```

```
## # A tibble: 1,472 x 2
##    asfis_species_name    catch_total
##    <chr>                       <dbl>
##  1 Osteichthyes               107808
##  2 Theragra chalcogramma       41075
##  3 Engraulis ringens           35523
##  4 Katsuwonus pelamis          32153
##  5 Trichiurus lepturus         30400
##  6 Clupea harengus             28527
##  7 Thunnus albacares           20119
##  8 Scomber japonicus           14723
##  9 Gadus morhua                13253
## 10 Thunnus alalunga            12019
## # ... with 1,462 more rows
```
Theragra chalcogramma.

10. Use the data to do at least one analysis of your choice.

```r
fisheries_tidy %>% 
  filter(country =="Japan") %>% 
  group_by(asfis_species_name) %>% 
  arrange(desc(catch))
```

```
## # A tibble: 15,429 x 10
## # Groups:   asfis_species_name [217]
##    country common_name     isscaap_group_nu~ isscaap_taxonomic~ asfis_species_n~
##    <fct>   <chr>           <fct>             <chr>              <fct>           
##  1 Japan   Japanese pilch~ 35                Herrings, sardine~ 1210501301      
##  2 Japan   Alaska pollock~ 32                Cods, hakes, hadd~ 1480401601      
##  3 Japan   Japanese pilch~ 35                Herrings, sardine~ 1210501301      
##  4 Japan   Japanese pilch~ 35                Herrings, sardine~ 1210501301      
##  5 Japan   Alaska pollock~ 32                Cods, hakes, hadd~ 1480401601      
##  6 Japan   Japanese pilch~ 35                Herrings, sardine~ 1210501301      
##  7 Japan   Alaska pollock~ 32                Cods, hakes, hadd~ 1480401601      
##  8 Japan   Japanese pilch~ 35                Herrings, sardine~ 1210501301      
##  9 Japan   Japanese pilch~ 35                Herrings, sardine~ 1210501301      
## 10 Japan   Japanese pilch~ 35                Herrings, sardine~ 1210501301      
## # ... with 15,419 more rows, and 5 more variables: asfis_species_name <chr>,
## #   fao_major_fishing_area <fct>, measure <chr>, year <dbl>, catch <dbl>
```
…
