…
## Questions
The questions below are open-ended and have many possible solutions. Your approach should, where appropriate, include numerical summaries and visuals. Be creative; assume you are building an analysis that you would ultimately present to an audience of stakeholders. Feel free to try out different `geoms` if they more clearly present your results.  

**1. Use the function(s) of your choice to get an idea of the overall structure of the data frame, including its dimensions, column names, variable classes, etc. As part of this, determine how NA's are treated in the data.**  

```r
gapminder
```

```
## # A tibble: 1,704 x 6
##    country     continent  year lifeExp      pop gdpPercap
##    <fct>       <fct>     <int>   <dbl>    <int>     <dbl>
##  1 Afghanistan Asia       1952    28.8  8425333      779.
##  2 Afghanistan Asia       1957    30.3  9240934      821.
##  3 Afghanistan Asia       1962    32.0 10267083      853.
##  4 Afghanistan Asia       1967    34.0 11537966      836.
##  5 Afghanistan Asia       1972    36.1 13079460      740.
##  6 Afghanistan Asia       1977    38.4 14880372      786.
##  7 Afghanistan Asia       1982    39.9 12881816      978.
##  8 Afghanistan Asia       1987    40.8 13867957      852.
##  9 Afghanistan Asia       1992    41.7 16317921      649.
## 10 Afghanistan Asia       1997    41.8 22227415      635.
## # ... with 1,694 more rows
```
…
```r
gapminder %>% 
  group_by(continent, year) %>% 
  summarize(min=min(lifeExp),
            mean=mean(lifeExp),
            max=max(lifeExp))
```

```
## `summarise()` has grouped output by 'continent'. You can override using the
## `.groups` argument.
```

```
## # A tibble: 60 x 5
## # Groups:   continent [5]
##    continent  year   min  mean   max
##    <fct>     <int> <dbl> <dbl> <dbl>
##  1 Africa     1952  30    39.1  52.7
##  2 Africa     1957  31.6  41.3  58.1
##  3 Africa     1962  32.8  43.3  60.2
##  4 Africa     1967  34.1  45.3  61.6
##  5 Africa     1972  35.4  47.5  64.3
##  6 Africa     1977  36.8  49.6  67.1
##  7 Africa     1982  38.4  51.6  69.9
##  8 Africa     1987  39.9  53.3  71.9
##  9 Africa     1992  23.6  53.6  73.6
## 10 Africa     1997  36.1  53.6  74.8
## # ... with 50 more rows
```
…
```r
gapminder %>% 
  select(country, year, pop) %>% 
  filter(year=="1952"|year=="2007") %>% 
  pivot_wider(names_from= year,
              names_prefix = "yr_",
              values_from = pop) %>% 
  
  mutate(delta=yr_2007-yr_1952) %>% 
  arrange(desc(delta))
```

```
## # A tibble: 142 x 4
##    country         yr_1952    yr_2007     delta
##    <fct>             <int>      <int>     <int>
##  1 China         556263527 1318683096 762419569
##  2 India         372000000 1110396331 738396331
##  3 United States 157553000  301139947 143586947
##  4 Indonesia      82052000  223547000 141495000
##  5 Brazil         56602560  190010647 133408087
##  6 Pakistan       41346560  169270617 127924057
##  7 Bangladesh     46886859  150448339 103561480
##  8 Nigeria        33119096  135031164 101912068
##  9 Mexico         30144317  108700891  78556574
## 10 Philippines    22438691   91077287  68638596
## # ... with 132 more rows
```
…
**10. Make one plot of your choice that uses faceting!**

```r
gapminder %>% 
  select(country, year, gdpPercap) %>% 
  filter(year=="2007") %>% 
  arrange(desc(gdpPercap))
```

```
## # A tibble: 142 x 3
##    country           year gdpPercap
##    <fct>            <int>     <dbl>
##  1 Norway            2007    49357.
##  2 Kuwait            2007    47307.
##  3 Singapore         2007    47143.
##  4 United States     2007    42952.
##  5 Ireland           2007    40676.
##  6 Hong Kong, China  2007    39725.
##  7 Switzerland       2007    37506.
##  8 Netherlands       2007    36798.
##  9 Canada            2007    36319.
## 10 Iceland           2007    36181.
## # ... with 132 more rows
```
…
