Data Visualization: Venn Diagrams & Word Clouds
…
What are the 26 non-flying birds?

homerange%>%
  filter(taxon == "birds")%>%
  filter(locomotion != "flying")%>%
  select(common.name)

## # A tibble: 26 x 1
##    common.name          
##    <chr>                
##  1 gadwall              
##  2 northern brown kiwi  
##  3 oystercatcher        
##  4 greater roadrunner   
##  5 banded ground-cuckoo 
##  6 caracara             
##  7 red-throated caracara
##  8 hazel grouse         
##  9 sage grouse          
## 10 dusky grouse         
## # ... with 16 more rows

what is the flying non-bird?

homerange%>%
  filter(taxon!= "birds")%>%
  filter(locomotion != "flying")%>%
  select(common.name)

## # A tibble: 429 x 1
##    common.name            
##    <chr>                  
##  1 american eel           
##  2 blacktail redhorse     
##  3 central stoneroller    
##  4 rosyside dace          
##  5 longnose dace          
##  6 muskellunge            
##  7 pollack                
##  8 saithe                 
##  9 lined surgeonfish      
## 10 orangespine unicornfish
## # ... with 419 more rows
…
